<?xml version="1.0" encoding="utf-8"?>
<!-- Generator: Adobe Illustrator 19.0.0, SVG Export Plug-In . SVG Version: 6.00 Build 0)  -->
<svg version="1.1" id="Layer_1" xmlns="http://www.w3.org/2000/svg" xmlns:xlink="http://www.w3.org/1999/xlink" x="0px" y="0px"
	 width="200px" height="200px" viewBox="0 0 200 200" style="enable-background:new 0 0 200 200;" xml:space="preserve">
<style type="text/css">
	.st0{clip-path:url(#XMLID_3_);fill:#ffffff;}
</style>
<g id="XMLID_1478_">
	<defs>
		<rect id="XMLID_1479_" x="55.8" y="63.7" width="88.3" height="72.6"/>
	</defs>
	<clipPath id="XMLID_3_">
		<use xlink:href="#XMLID_1479_"  style="overflow:visible;"/>
	</clipPath>
	<path id="XMLID_1491_" class="st0" d="M105.2,111.2h-1.8c-1,0-1.8-0.8-1.8-1.8c0-0.3,0.1-0.7,0.4-0.9c1.1-1.1,2-2.5,2.6-4
		c0.1,0.1,0.3,0.2,0.4,0.2c1,0,2.3-2.3,2.3-3.9c0-1.6-0.1-2.8-1.2-2.8c-0.1,0-0.2,0-0.4,0.1c-0.1-4.2-1.1-9.6-7.6-9.6
		c-6.8,0-7.6,5.3-7.6,9.5c-0.1,0-0.2,0-0.3,0c-1,0-1.2,1.3-1.2,2.8c0,1.6,1.2,3.9,2.3,3.9c0.1,0,0.2,0,0.3-0.1
		c0.7,1.5,1.5,2.9,2.6,3.9c0.3,0.3,0.4,0.6,0.4,0.9c0,1-0.8,1.8-1.7,1.8H91c-4,0-7.2,3.2-7.2,7.2v2c0,1.2,1,2.3,2.3,2.3h24
		c1.3,0,2.3-1,2.3-2.3v-2C112.3,114.4,109.1,111.2,105.2,111.2"/>
	<path id="XMLID_1490_" class="st0" d="M126.6,91.5h-20.1c0.6,1.3,1,2.9,1.2,4.8c0.4,0.3,0.7,0.7,1,1.2h17.9c0.9,0,1.7-0.7,1.7-1.7
		v-2.7C128.3,92.2,127.6,91.5,126.6,91.5"/>
	<path id="XMLID_1489_" class="st0" d="M126.6,102.4h-17.5c-0.5,1.8-1.6,3.7-3.3,4.2c0,0.1-0.1,0.2-0.1,0.3v1.6h20.9
		c0.9,0,1.7-0.8,1.7-1.7v-2.7C128.3,103.2,127.6,102.4,126.6,102.4"/>
	<path id="XMLID_1488_" class="st0" d="M126.6,113.4H113c0.9,1.4,1.4,3.1,1.4,4.9v1.1h12.2c0.9,0,1.7-0.8,1.7-1.7v-2.7
		C128.3,114.2,127.6,113.4,126.6,113.4"/>
	<path id="XMLID_1485_" class="st0" d="M139.3,126c0,3-2.5,5.4-5.5,5.4H78.3c-3,0-5.4-2.4-5.4-5.4V85c0-3,2.4-5.4,5.4-5.4h55.5
		c3,0,5.5,2.4,5.5,5.4V126z M133.8,74.7H78.3C72.6,74.7,68,79.3,68,85v41c0,5.7,4.6,10.3,10.3,10.3h55.5c5.7,0,10.3-4.6,10.3-10.3
		V85C144.2,79.3,139.6,74.7,133.8,74.7"/>
	<path id="XMLID_1480_" class="st0" d="M66.1,68.5h55.6c2.3,0,4.2,1.4,5,3.4h5.1c-1-4.7-5.1-8.2-10.1-8.2H66.1
		c-5.7,0-10.3,4.6-10.3,10.3v41c0,5.4,4.1,9.7,9.4,10.2v-4.9c-2.5-0.5-4.5-2.7-4.5-5.4V74C60.7,71,63.1,68.5,66.1,68.5"/>
</g>
</svg>
