<?xml version="1.0" encoding="utf-8"?>
<!-- Generator: Adobe Illustrator 19.0.0, SVG Export Plug-In . SVG Version: 6.00 Build 0)  -->
<svg version="1.1" id="Layer_1" xmlns="http://www.w3.org/2000/svg" xmlns:xlink="http://www.w3.org/1999/xlink" x="0px" y="0px"
	 width="150px" height="150px" viewBox="0 0 150 150" style="enable-background:new 0 0 150 150;" xml:space="preserve">
<style type="text/css">
	.st0{fill:#FFFFFF;}
</style>
<g id="XMLID_126_">
	<polygon id="XMLID_128_" class="st0" points="75,42.6 37.2,61.6 42.6,65.1 42.6,99.3 48,102 48,68.6 75,85.8 97.3,71.4 112.8,61.3 
			"/>
	<path id="XMLID_127_" class="st0" d="M97.6,75L75,89.8L52.2,75l-1.4,13.7c2.7,2.1,18.9,13.2,24.3,18.6c5.4-5.4,21.6-16.5,24.3-18.6
		L97.6,75z"/>
</g>
</svg>
