<?xml version="1.0" encoding="utf-8"?>
<!-- Generator: Adobe Illustrator 19.0.0, SVG Export Plug-In . SVG Version: 6.00 Build 0)  -->
<svg version="1.1" id="Layer_1" xmlns="http://www.w3.org/2000/svg" xmlns:xlink="http://www.w3.org/1999/xlink" x="0px" y="0px"
	 width="150px" height="150px" viewBox="0 0 150 150" style="enable-background:new 0 0 150 150;" xml:space="preserve">
<style type="text/css">
	.st0{fill:#FFFFFF;}
</style>
<g id="XMLID_96_">
	<path id="XMLID_97_" class="st0" d="M75,107.8c-18.1,0-32.8-14.7-32.7-32.8c0-18.1,14.7-32.7,32.8-32.7c18.1,0,32.7,14.7,32.7,32.8
		C107.7,93.1,93,107.8,75,107.8z M70.3,67.7c0-0.6,0-1.2,0-1.7c0.1-2.4,1.8-4.3,4-4.4c2.8-0.1,4.8,1.4,5.1,4
		c0.3,2.4-0.9,4.1-2.7,5.4c-1,0.7-2,1.4-2.9,2.1c-1.6,1.2-2.7,2.8-3.1,4.8c-0.2,1-0.3,2.1-0.4,3.1c-0.1,0.6,0.2,0.9,0.8,0.9
		c1.6,0,3.3,0,4.9,0c1.2,0,1.3,0,1.3-1.3c0-1.8,0.6-3.4,2.1-4.5c0.5-0.4,1.1-0.7,1.6-1.1c1.8-1.4,3.7-2.6,4.8-4.7
		c2-3.7,1.5-10.4-4.8-13.1c-3.2-1.4-6.6-1.6-9.9-1c-3.9,0.7-6.5,3-7.4,6.9c-0.4,1.5-0.6,3-0.5,4.6C65.6,67.7,67.9,67.7,70.3,67.7z
		 M77.9,89.9c0-2.5-1.8-4.3-4.3-4.3c-2.5-0.1-4.4,1.8-4.4,4.3c0,2.5,1.8,4.3,4.3,4.3C76.1,94.2,77.9,92.4,77.9,89.9z"/>
</g>
</svg>
