<?xml version="1.0" encoding="utf-8"?>
<!-- Generator: Adobe Illustrator 19.0.0, SVG Export Plug-In . SVG Version: 6.00 Build 0)  -->
<svg version="1.1" id="Layer_1" xmlns="http://www.w3.org/2000/svg" xmlns:xlink="http://www.w3.org/1999/xlink" x="0px" y="0px"
	 width="150px" height="150px" viewBox="0 0 150 150" style="enable-background:new 0 0 150 150;" xml:space="preserve">
<style type="text/css">
	.st0{fill:#FFFFFF;}
</style>
<g id="XMLID_91_">
	<g id="XMLID_126_">
		<path id="XMLID_128_" class="st0" d="M86.5,63l1.2-0.8l1.2,0.8l3,1.9V49.6c-2.7,0-5.9,0-8.5,0v15.4L86.5,63z"/>
		<path id="XMLID_127_" class="st0" d="M98.3,49.6c0,0-1.8,0-4.2,0V69l-6.4-4.2L81.4,69V49.6c-1.6,0-2.7,0-3,0c-1.1,0-2.3,1-2.3,2
			s0,43.6,0,43.6L75,95.9l-1.1-0.7c0,0,0-42.7,0-43.6s-1.2-2-2.3-2s-19.9,0-19.9,0c-2.5,0-4.4,1.8-4.4,4.2v37.9
			c0,2.5,1.9,4.5,4.4,4.5c0,0,17.2,0,19,0s3.3,0.6,3.3,2.6c0,1.2,0,1.7,0,1.7H75h1.1c0,0,0-0.5,0-1.7c0-2,1.4-2.6,3.3-2.6s19,0,19,0
			c2.5,0,4.4-2,4.4-4.5V53.8C102.7,51.3,100.8,49.6,98.3,49.6z"/>
	</g>
</g>
</svg>
