<?xml version="1.0" encoding="utf-8"?>
<!-- Generator: Adobe Illustrator 19.0.0, SVG Export Plug-In . SVG Version: 6.00 Build 0)  -->
<svg version="1.1" id="Layer_1" xmlns="http://www.w3.org/2000/svg" xmlns:xlink="http://www.w3.org/1999/xlink" x="0px" y="0px"
	 width="250px" height="250px" viewBox="0 0 250 250" style="enable-background:new 0 0 250 250;" xml:space="preserve">
<style type="text/css">
	.st0{fill:#2E1B48;}
</style>
<g id="XMLID_7_">
	<g id="XMLID_95_">
		<g id="XMLID_98_">
			<path id="XMLID_100_" class="st0" d="M191.9,142.8H183c-1.3,0-2.4,0.4-3.2,1.3c-0.8,0.8-1.3,1.9-1.3,3.2v44.6
				c0,6.1-2.2,11.4-6.5,15.7c-4.4,4.4-9.6,6.5-15.7,6.5H40.3c-6.1,0-11.4-2.2-15.7-6.5c-4.4-4.4-6.5-9.6-6.5-15.7V76
				c0-6.1,2.2-11.4,6.5-15.7c4.4-4.4,9.6-6.5,15.7-6.5h98.1c1.3,0,2.4-0.4,3.2-1.3c0.8-0.8,1.3-1.9,1.3-3.2v-8.9
				c0-1.3-0.4-2.4-1.3-3.2c-0.8-0.8-1.9-1.3-3.2-1.3H40.3c-11.1,0-20.5,3.9-28.3,11.8C4.1,55.5,0.2,64.9,0.2,76v115.9
				c0,11.1,3.9,20.5,11.8,28.3c7.8,7.8,17.3,11.8,28.3,11.8h115.9c11.1,0,20.5-3.9,28.3-11.8c7.8-7.8,11.8-17.3,11.8-28.3v-44.6
				c0-1.3-0.4-2.4-1.3-3.2C194.2,143.2,193.2,142.8,191.9,142.8z"/>
			<path id="XMLID_99_" class="st0" d="M247.2,20.7c-1.8-1.8-3.9-2.6-6.3-2.6h-71.3c-2.4,0-4.5,0.9-6.3,2.6
				c-1.8,1.8-2.6,3.9-2.6,6.3s0.9,4.5,2.6,6.3l24.5,24.5L97,148.5c-0.9,0.9-1.4,2-1.4,3.2c0,1.2,0.5,2.3,1.4,3.2l15.9,15.9
				c0.9,0.9,2,1.4,3.2,1.4c1.2,0,2.3-0.5,3.2-1.4L210.1,80l24.5,24.5c1.8,1.8,3.9,2.6,6.3,2.6c2.4,0,4.5-0.9,6.3-2.6
				c1.8-1.8,2.6-3.9,2.6-6.3V26.9C249.8,24.5,248.9,22.4,247.2,20.7z"/>
		</g>
	</g>
</g>
</svg>
