<?xml version="1.0" encoding="utf-8"?>
<!-- Generator: Adobe Illustrator 19.0.0, SVG Export Plug-In . SVG Version: 6.00 Build 0)  -->
<svg version="1.1" id="Layer_1" xmlns="http://www.w3.org/2000/svg" xmlns:xlink="http://www.w3.org/1999/xlink" x="0px" y="0px"
	 width="150px" height="150px" viewBox="0 0 150 150" style="enable-background:new 0 0 150 150;" xml:space="preserve">
<style type="text/css">
	.st0{fill:#FFFFFF;}
</style>
<g>
	<ellipse id="XMLID_90_" class="st0" cx="75.7" cy="57.9" rx="13.9" ry="19"/>
	<path id="XMLID_89_" class="st0" d="M75.7,82.2l4.7-4.4l23.4,5.9c0.6,0.2,1.1,0.7,1,1.4l-1.1,17.7c-0.3,4.6-4.1,8.2-8.8,8.2H75.7
		l6.4-6.9L75.7,82.2z"/>
	<path id="XMLID_88_" class="st0" d="M46.3,83.4L70,77.9l5.6,4.4l-7.4,21.8l7.4,7H55.2c-4.6,0-8.5-3.6-8.8-8.2l-1.2-18
		C45.2,84.2,45.6,83.6,46.3,83.4z"/>
</g>
</svg>
