{
  "project_info": {
    "project_number": "711946618150",
    "firebase_url": "https://grasco-app-4d393.firebaseio.com",
    "project_id": "grasco-app-4d393",
    "storage_bucket": "grasco-app-4d393.appspot.com"
  },
  "client": [
    {
      "client_info": {
        "mobilesdk_app_id": "1:711946618150:android:f30362e8174184cd",
        "android_client_info": {
          "package_name": "com.grasco.sweetfair2019"
        }
      },
      "oauth_client": [
        {
          "client_id": "711946618150-bmebrh7302uibl7nhcthrntl6h8flapt.apps.googleusercontent.com",
          "client_type": 3
        }
      ],
      "api_key": [
        {
          "current_key": "AIzaSyDQUi04aeM6hAG8PxQ1iW-x_dgyyC3lSgk"
        }
      ],
      "services": {
        "appinvite_service": {
          "other_platform_oauth_client": [
            {
              "client_id": "711946618150-bmebrh7302uibl7nhcthrntl6h8flapt.apps.googleusercontent.com",
              "client_type": 3
            }
          ]
        }
      }
    }
  ],
  "configuration_version": "1"
}