<?xml version="1.0" encoding="utf-8"?>
<!-- Generator: Adobe Illustrator 20.1.0, SVG Export Plug-In . SVG Version: 6.00 Build 0)  -->
<svg version="1.1" id="Capa_1" xmlns="http://www.w3.org/2000/svg" xmlns:xlink="http://www.w3.org/1999/xlink" x="0px" y="0px"
	 viewBox="0 0 600 600" style="enable-background:new 0 0 600 600;" xml:space="preserve">
<style type="text/css">
	.st0{fill:#717171;}
</style>
<g transform="translate(0,-952.36216)">
	<path class="st0" d="M92.7,960.6c-12.6,0-23,10.4-23,23v107.5c0,12.6,10.4,23,23,23h107.5c12.6,0,23-10.4,23-23V983.7
		c0-12.6-10.4-23-23-23H92.7z M92.7,976h107.5c4.4,0,7.7,3.3,7.7,7.7v107.5c0,4.4-3.3,7.7-7.7,7.7H92.7c-4.4,0-7.7-3.3-7.7-7.7
		V983.7C85,979.3,88.3,976,92.7,976z M189.9,1002.6c-2,0-3.9,0.7-5.4,2.2l-48.9,48.9l-27.1-27.2c-3-3-7.8-3-10.9,0
		c-3,3-3,7.8,0,10.9l32.6,32.6c2.3,2.3,5.5,2.8,8.3,1.7c0.9-0.4,1.8-0.9,2.5-1.7l54.3-54.3c3-3,3-7.8,0-10.9
		C193.8,1003.3,191.8,1002.6,189.9,1002.6L189.9,1002.6z M284.6,1022c-8.5,0-15.4,6.8-15.4,15.4c0,8.5,6.8,15.4,15.4,15.4H515
		c8.5,0,15.4-6.8,15.4-15.4c0-8.5-6.8-15.4-15.4-15.4H284.6z M92.7,1175.6c-12.6,0-23,10.4-23,23v107.5c0,12.6,10.4,23,23,23h107.5
		c12.6,0,23-10.4,23-23v-107.5c0-12.6-10.4-23-23-23H92.7z M92.7,1190.9h107.5c4.4,0,7.7,3.3,7.7,7.7v107.5c0,4.4-3.3,7.7-7.7,7.7
		H92.7c-4.4,0-7.7-3.3-7.7-7.7v-107.5C85,1194.2,88.3,1190.9,92.7,1190.9z M284.6,1237c-8.5,0-15.4,6.8-15.4,15.4
		c0,8.5,6.8,15.4,15.4,15.4H515c8.5,0,15.4-6.8,15.4-15.4c0-8.5-6.8-15.4-15.4-15.4H284.6z M92.7,1390.6c-12.6,0-23,10.4-23,23
		v107.5c0,12.6,10.4,23,23,23h107.5c12.6,0,23-10.4,23-23v-107.5c0-12.6-10.4-23-23-23H92.7z M92.7,1405.9h107.5
		c4.4,0,7.7,3.3,7.7,7.7v107.5c0,4.4-3.3,7.7-7.7,7.7H92.7c-4.4,0-7.7-3.3-7.7-7.7v-107.5C85,1409.2,88.3,1405.9,92.7,1405.9z
		 M284.6,1452c-8.5,0-15.4,6.8-15.4,15.4c0,8.5,6.8,15.4,15.4,15.4H515c8.5,0,15.4-6.8,15.4-15.4c0-8.5-6.8-15.4-15.4-15.4H284.6z"
		/>
</g>
</svg>
