<?xml version="1.0" encoding="utf-8"?>
<!-- Generator: Adobe Illustrator 20.1.0, SVG Export Plug-In . SVG Version: 6.00 Build 0)  -->
<svg version="1.1" id="Capa_1" xmlns="http://www.w3.org/2000/svg" xmlns:xlink="http://www.w3.org/1999/xlink" x="0px" y="0px"
	 viewBox="0 0 600 600" style="enable-background:new 0 0 600 600;" xml:space="preserve">
<style type="text/css">
	.st0{fill:#FFFFFF;}
</style>
<path id="XMLID_224_" class="st0" d="M33.4,441.5c0-6.8,2.3-13.7,7-19.3l236.5-283.1c5.7-6.9,14.2-10.8,23.1-10.8s17.4,4,23.1,10.8
	l236.5,283.1c10.7,12.8,9,31.8-3.8,42.5c-12.8,10.7-31.8,9-42.5-3.8L300,205.5L86.7,460.9C76,473.7,57,475.4,44.2,464.7
	C37.1,458.7,33.4,450.2,33.4,441.5z"/>
</svg>
