<?xml version="1.0" encoding="utf-8"?>
<!-- Generator: Adobe Illustrator 20.1.0, SVG Export Plug-In . SVG Version: 6.00 Build 0)  -->
<svg version="1.1" id="Capa_1" xmlns="http://www.w3.org/2000/svg" xmlns:xlink="http://www.w3.org/1999/xlink" x="0px" y="0px"
	 viewBox="0 0 600 528.9" style="enable-background:new 0 0 600 528.9;" xml:space="preserve">
<style type="text/css">
	.st0{fill:#8E9092;}
	.st1{fill:url(#SVGID_1_);}
	.st2{fill:url(#SVGID_2_);}
	.st3{fill:url(#SVGID_3_);}
	.st4{fill:#184880;}
</style>
<g>
	<g>
		<path class="st0" d="M72.9,500c0-8.8,2.2-15.9,6.5-21.3c4.4-5.3,10.2-8,17.4-8c5.4,0,10.1,1.7,14.3,5c4.1,3.4,6.7,7.7,7.6,13
			l-7,0.7c-0.6-3.6-2.3-6.5-5.2-8.9c-2.8-2.3-6-3.5-9.6-3.5c-5.1,0-9.2,2.1-12.2,6.3c-3.1,4.1-4.6,9.7-4.6,16.7
			c0,6.8,1.5,12.3,4.6,16.4c3,4.1,7.1,6.1,12.2,6.1c4.7,0,8.5-1.6,11.3-4.8c2.8-3.1,4.3-7.4,4.3-12.7H96.8v-7h22.6v28.7h-5l-1-6
			c-1.8,2.6-4.2,4.6-7.2,6c-2.9,1.4-6,2-9.4,2c-7.2,0-13-2.6-17.4-7.9C75,515.7,72.9,508.8,72.9,500z"/>
		<path class="st0" d="M140.5,528.2v-56.3h7v56.3H140.5z"/>
		<path class="st0" d="M170.6,528.2v-56.3h24.3c5.6,0,10,1.5,13.3,4.5c3.3,3,5,7,5,12c0,3.1-0.8,5.9-2.4,8.4c-1.7,2.5-4,4.3-6.8,5.4
			c2,1.4,3.6,3.1,4.8,5.2c1.2,2.2,1.9,4.4,1.9,6.7l0.4,10.9c0,0.6,0.3,1.4,1,2.5l0.4,0.7h-7l-0.2-0.4c-0.8-1.4-1.2-2.4-1.2-3.1
			l-0.4-10.6c0-2.7-1.2-4.9-3.6-6.7c-2.2-1.6-4.9-2.4-8-2.4h-14.4v23.1H170.6z M177.6,498.8h17.2c3.4,0,6.1-0.9,8.2-2.8
			c2-1.9,3.1-4.5,3.1-7.6c0-3.1-1-5.5-3.1-7.4c-2.1-1.9-4.8-2.8-8.2-2.8h-17.2V498.8z"/>
		<path class="st0" d="M229.4,528.2l18.3-56.3h9.1l18.3,56.3h-7l-5.6-16.9h-20.4l-5.6,16.9H229.4z M244.2,505.1h16.3l-8.1-24.4
			L244.2,505.1z"/>
		<path class="st0" d="M329.6,528.2c0-5.4,2-10.4,6-15.1c3.3-3.9,7.8-7.5,13.7-10.9c4-2.3,6.9-4.3,8.7-6.1c2.7-2.7,4-5.6,4-8.7
			c0-2.9-1.3-5.3-3.8-7.2c-2.4-1.7-5.2-2.6-8.5-2.6c-3.4,0-6.3,1.1-8.7,3.4c-2.5,2.3-3.7,5.2-3.7,8.5v3.5H331v-3.5
			c0-5.1,1.9-9.4,5.6-13c3.6-3.5,8-5.3,13.1-5.3c5,0,9.3,1.5,13,4.4c3.8,3.1,5.6,7,5.6,11.7c0,4.1-1.5,7.9-4.5,11.5
			c-2.5,3-5.9,5.7-10.3,8.2l-1.9,1.1c-8.3,4.7-12.8,9.3-13.6,13.7h30.3v6.3H329.6z"/>
		<path class="st0" d="M385.7,500c0-7.7,1.8-14.3,5.4-19.7c4-6.1,9.2-9.1,15.7-9.1s11.7,3,15.7,9.1c3.6,5.4,5.4,12,5.4,19.7
			c0,7.7-1.8,14.3-5.4,19.7c-4,6.1-9.2,9.1-15.7,9.1s-11.7-3-15.7-9.1C387.5,514.3,385.7,507.8,385.7,500z M392,500
			c0,6.2,1.2,11.4,3.5,15.6c2.7,4.9,6.4,7.3,11.3,7.3c4.8,0,8.6-2.4,11.3-7.3c2.3-4.2,3.4-9.4,3.4-15.6c0-6.2-1.1-11.4-3.4-15.6
			c-2.7-4.9-6.5-7.3-11.3-7.3c-4.9,0-8.6,2.4-11.3,7.3C393.2,488.7,392,493.9,392,500z"/>
		<path class="st0" d="M439.6,488.1v-4.9c4.1,0,7.7-1,10.7-2.9c3.3-2.1,5.1-4.9,5.4-8.4h4.3v56.3h-6.3v-40.1H439.6z"/>
		<path class="st0" d="M487.9,511.4c0-3.1,0.9-5.9,2.6-8.3c1.7-2.5,4-4.3,6.8-5.4c-2.5-0.9-4.4-2.4-5.9-4.5
			c-1.5-2.2-2.2-4.5-2.2-7.1c0-4.4,1.9-8,5.6-10.8c3.6-2.7,7.8-4,12.7-4c4.9,0,9.1,1.3,12.7,4c3.8,2.8,5.6,6.4,5.6,10.8
			c0,2.6-0.8,5-2.4,7.1c-1.5,2.1-3.6,3.6-6.1,4.5c2.9,1,5.3,2.8,7.1,5.4c1.8,2.5,2.7,5.2,2.7,8.3c0,5-2,9.2-5.9,12.6
			c-3.8,3.3-8.4,4.9-13.7,4.9c-5.3,0-9.9-1.6-13.7-4.9C489.9,520.6,487.9,516.4,487.9,511.4z M494.2,511.3c0,3.3,1.4,6,4.1,8.2
			c2.6,2,5.7,3.1,9.3,3.1s6.6-1,9.2-3.1c2.7-2.2,4.1-4.9,4.1-8.2c0-3.1-1.4-5.7-4.1-7.7c-2.6-1.9-5.6-2.9-9.2-2.9
			c-3.6,0-6.6,0.9-9.2,2.8C495.6,505.6,494.2,508.2,494.2,511.3z M495.5,486c0,2.7,1.3,4.8,3.8,6.3c2.3,1.4,5,2.1,8.2,2.1
			s5.9-0.7,8.1-2.1c2.5-1.6,3.8-3.7,3.8-6.3s-1.3-4.8-3.8-6.3c-2.2-1.4-4.9-2.1-8.1-2.1s-6,0.7-8.2,2.1
			C496.8,481.2,495.5,483.4,495.5,486z"/>
	</g>
	<g>
		<linearGradient id="SVGID_1_" gradientUnits="userSpaceOnUse" x1="207.9816" y1="111.0607" x2="411.0556" y2="111.0607">
			<stop  offset="0" style="stop-color:#2261AC"/>
			<stop  offset="1" style="stop-color:#004784"/>
		</linearGradient>
		<path class="st1" d="M300,0v32.5c43.3,0,78.5,35.3,78.5,78.6c0,43.3-35.2,78.5-78.6,78.5c-26.4,0-49.7-13.1-63.9-33.1L208,173.2
			c20,29.5,53.8,48.9,92,48.9c61.2,0,111.1-49.8,111.1-111C411.1,49.8,361.3,0,300,0L300,0z M300,0"/>
		<radialGradient id="SVGID_2_" cx="299.9996" cy="111.0652" r="53.0761" gradientUnits="userSpaceOnUse">
			<stop  offset="2.489984e-02" style="stop-color:#184880"/>
			<stop  offset="1" style="stop-color:#0E3666"/>
		</radialGradient>
		<path class="st2" d="M353.1,111.1c0,29.3-23.8,53.1-53.1,53.1c-29.3,0-53.1-23.8-53.1-53.1c0-29.3,23.8-53.1,53.1-53.1
			C329.3,58,353.1,81.8,353.1,111.1L353.1,111.1z M353.1,111.1"/>
		<linearGradient id="SVGID_3_" gradientUnits="userSpaceOnUse" x1="138.3144" y1="143.1996" x2="461.6856" y2="143.1996">
			<stop  offset="2.489984e-02" style="stop-color:#184880"/>
			<stop  offset="1" style="stop-color:#0E3666"/>
		</linearGradient>
		<path class="st3" d="M411.8,36c14.4,21.5,22.9,47.3,22.9,75c0,74.3-60.4,134.7-134.7,134.7s-134.7-60.4-134.7-134.7
			c0-7.3,0.7-14.4,1.9-21.4h-27.3c-0.9,7-1.6,14.1-1.6,21.4c0,89.2,72.5,161.7,161.7,161.7s161.7-72.5,161.7-161.7
			c0-36.6-12.4-70.3-32.9-97.4L411.8,36z"/>
	</g>
	<g>
		<g>
			<path class="st4" d="M124.4,420.9h-41v-97.5h42.5c19.9,0,26.8,16.2,16.8,31.2l-4.8,7.1C171.3,378.9,160.5,420.9,124.4,420.9
				 M119.6,366.2l8.1-12.1c2.1-3,2.5-5,2.5-7.1c0-6-5.2-11-11.3-11h-12.5v71.7h6.9c11.6,0,20.4-6.3,20.4-20.9
				C133.7,374.8,128.1,368.3,119.6,366.2"/>
			<path class="st4" d="M42,420.9H1v-97.5h42.5c19.9,0,26.8,16.2,16.8,31.2l-4.8,7.1C88.8,378.9,78,420.9,42,420.9 M37.1,366.2
				l8.1-12.1c2.1-3,2.5-5,2.5-7.1c0-6-5.2-11-11.3-11H23.9v71.7h6.9c11.6,0,20.4-6.3,20.4-20.9C51.3,374.8,45.6,368.3,37.1,366.2"/>
			<path class="st4" d="M221.3,323.3h15.4L207,420.8l-23.4,0l-31.9-97.5l17.2,0c6.7,0,8.4,1.7,11.9,12.8l18.5,61.3L221.3,323.3z"/>
			<path class="st4" d="M285.6,333.3c-2.8-8.1-4.6-9.9-11.8-9.9l-18.6,0l-29.8,97.5h15.2l6.4-21h35.5l6.4,21h26.4L285.6,333.3z
				 M251.2,385.5l13.3-44.5l13.5,44.5H251.2z"/>
		</g>
		<g>
			<g>
				<path class="st4" d="M349.3,321.9h33.2c23.4,0,33.2,10.3,33.2,25c0,13.1-8.8,20.6-19.1,22.9v0.3c12.3,2.3,22.6,10.2,22.6,24.1
					c0,14.7-9.6,26.8-33.4,26.8h-36.4V321.9z M381.9,367c16.8,0,27-6.3,27-19.7c0-13.2-8.3-19.3-26.6-19.3H356V367H381.9z
					 M386.1,414.7c18.2,0,26.4-7.6,26.4-20.6c0-14.4-11.6-21.1-29.7-21.1H356v41.7H386.1z"/>
				<path class="st4" d="M439,321.9h6.4v99H439V321.9z"/>
				<path class="st4" d="M468,401.6v-51h6.4v50.2c0,10.7,4.7,15.9,15.4,15.9c9.8,0,17.9-5.1,26.6-13.4v-52.7h6.4v70.2h-6.4v-11.6
					c-7.8,7.4-16.9,13.1-27.2,13.1C474.7,422.3,468,414.3,468,401.6z"/>
				<path class="st4" d="M541.3,385.7c0-24.3,14.9-36.5,29.8-36.5c16.6,0,27.8,13.9,27.8,36v0.9h-51.2c0,19.1,10.6,30.6,23.5,30.6
					c11,0,17.3-5.2,22.6-14.6l4.7,2.9c-5.8,10.6-14,17.3-27.7,17.3C555.1,422.3,541.3,408.8,541.3,385.7z M592.3,380.7
					c-0.9-14.4-7.8-25.9-21.3-25.9c-11,0-21.4,8.6-23.1,25.9H592.3z"/>
			</g>
		</g>
	</g>
</g>
</svg>
