<?xml version="1.0" encoding="utf-8"?>
<!-- Generator: Adobe Illustrator 20.1.0, SVG Export Plug-In . SVG Version: 6.00 Build 0)  -->
<svg version="1.1" id="Capa_1" xmlns="http://www.w3.org/2000/svg" xmlns:xlink="http://www.w3.org/1999/xlink" x="0px" y="0px"
	 viewBox="0 0 600 600" style="enable-background:new 0 0 600 600;" xml:space="preserve">
<style type="text/css">
	.st0{fill:#FFFFFF;}
</style>
<g>
	<path class="st0" d="M582.7,142H16.4C7.4,142,0,134.7,0,125.6c0-9.1,7.4-16.4,16.4-16.4h566.3c9.1,0,16.4,7.4,16.4,16.4
		C599.1,134.7,591.8,142,582.7,142"/>
	<path class="st0" d="M582.7,310.2H16.4c-9.1,0-16.4-7.4-16.4-16.4c0-9.1,7.4-16.4,16.4-16.4h566.3c9.1,0,16.4,7.4,16.4,16.4
		C599.1,302.9,591.8,310.2,582.7,310.2"/>
	<path class="st0" d="M582.7,490.8H16.4c-9.1,0-16.4-7.4-16.4-16.4c0-9.1,7.4-16.4,16.4-16.4h566.3c9.1,0,16.4,7.4,16.4,16.4
		C599.1,483.5,591.8,490.8,582.7,490.8"/>
</g>
</svg>
